…
``` r
# ?tangimport #documentatioj
setwd("/Users/osher/OneDrive/Hec MSc/3. Logiciels statistiques/Travail final") #remplacez par votre répertoire de travail
getwd() #vérifiez votre répertoire de travail
```

    ## [1] "/Users/osher/OneDrive/Hec MSc/3. Logiciels statistiques/Travail final"

``` r
importation = tangimport(importation) #importer vos fichiers
```

    ## # A tibble: 24 × 5
    ##    `Date de l'opération` Transaction Nom           Description           Montant
    ##    <date>                <chr>       <chr>         <chr>                   <dbl>
    ##  1 2021-09-04            DÉBIT       AMZN Mktp CA… Remises accumulées :…  -77.7 
    ##  2 2021-09-03            DÉBIT       PAYPAL *X2 R… Remises accumulées :…  -93.2 
    ##  3 2021-08-29            DÉBIT       COUCHE-TARD … Remises accumulées :…   -2.29
    ##  4 2021-08-26            DÉBIT       MEC MOUNTAIN… Remises accumulées :… -408.  
    ##  5 2021-08-26            DÉBIT       BOULANGERIE … Remises accumulées :…   -3.7 
    ##  6 2021-08-24            DÉBIT       DOLLARAMA # … Remises accumulées :…   -2.3 
    ##  7 2021-08-24            DÉBIT       MICROSOFT*XB… Remises accumulées :…  -19.5 
    ##  8 2021-08-24            CRÉDIT      PAIEMENT - M… <NA>                   987.  
    ##  9 2021-08-20            DÉBIT       LES PRODUITS… Remises accumulées :…  -53.4 
    ## 10 2021-08-20            DÉBIT       MATERIAUX VI… Remises accumulées :…   -3.78
    ## # … with 14 more rows
…
